{
  "certificate_data": [
    {
      "first_name": "Petko",
      "last_name": "Petkovski",
      "course_successfully_completed": true,
      "course_title": "Full-stack with Java",
      "duration_hours": 200,
      "certificate_date": "2021-05-28"
    },
    {
      "first_name": "Marija",
      "last_name": "Peroska",
      "course_successfully_completed": true,
      "course_title": "Full-stack with Java",
      "duration_hours": 200,
      "certificate_date": "2021-05-28"
    },
    {
      "first_name": "Stefan",
      "last_name": "Stefanov",
      "course_successfully_completed": true,
      "course_title": "Full-stack with Java",
      "duration_hours": 200,
      "certificate_date": "2021-05-28"
    },
    {
      "first_name": "Mihaela",
      "last_name": "Kostovska",
      "course_successfully_completed": true,
      "course_title": "Full-stack with Java",
      "duration_hours": 200,
      "certificate_date": "2021-05-28"
    },
    {
      "first_name": "Katerina",
      "last_name": "Mitrevska",
      "course_successfully_completed": true,
      "course_title": "Full-stack with Java",
      "duration_hours": 200,
      "certificate_date": "2021-05-28"
    },
    {
      "first_name": "Nikola",
      "last_name": "Nikolovski",
      "course_successfully_completed": false,
      "course_title": "Full-stack with Java",
      "duration_hours": 200,
      "certificate_date": "2021-05-28"
    },
	{
      "first_name": "Biljana",
      "last_name": "Stojkovska",
      "course_successfully_completed": true,
      "course_title": "Full-stack with Java",
      "duration_hours": 200,
      "certificate_date": "2021-05-28"
    },
	{
      "first_name": "Bojan",
      "last_name": "Talevski",
      "course_successfully_completed": false,
      "course_title": "Full-stack with Java",
      "duration_hours": 200,
      "certificate_date": "2021-05-28"
    },
	{
      "first_name": "Emilija",
      "last_name": "Sotirovska",
      "course_successfully_completed": true,
      "course_title": "Full-stack with Java",
      "duration_hours": 200,
      "certificate_date": "2021-05-28"
    },
	{
      "first_name": "Andrej",
      "last_name": "Ilievski",
      "course_successfully_completed": false,
      "course_title": "Full-stack with Java",
      "duration_hours": 200,
      "certificate_date": "2021-05-28"
    }
  ]
}